2017-01-08 02:24:28	외침	[접속댐]	dd
2017-01-08 02:24:37	외침	[접속댐]	170103 
2017-01-08 02:24:41	외침	[접속댐]	asdasdasdwqdQWd
2017-01-08 02:24:43	외침	[접속댐]	dwqdqwdwq
2017-01-08 02:24:49	외침	[접속댐]	wqeqwe
2017-01-08 02:24:52	외침	[접속댐]	ㅁsfㄴㅁㄹ
2017-01-08 02:24:53	외침	[접속댐]	ㄴㅇㄹ
2017-01-08 02:24:54	외침	[접속댐]	음
2017-01-08 02:24:56	외침	[접속댐]	잘되네요
2017-01-08 05:17:30	외침	[노우코]	ㄷㄹ
2017-01-08 05:17:46	외침	[메티스]	ㅋㅋ
2017-01-08 05:18:27	외침	[노우코]	ㅋㅋ
2017-01-08 05:18:30	외침	[노우코]	ㄷㄱㅂ
2017-01-08 05:18:31	외침	[노우코]	ㅂㅈㄷ
2017-01-08 05:24:09	외침	[노우코]	ㅋㅇㄹ
2017-01-08 05:24:09	외침	[노우코]	ㅋㅇ
2017-01-08 06:04:56	외침	[전사테]	퀘스트가 안뜨는데
2017-01-08 06:05:09	외침	[메티스]	칼질은 계속되나여
2017-01-08 06:05:24	외침	[메티스]	님
2017-01-08 06:05:25	외침	[메티스]	칼질
2017-01-08 06:05:25	외침	[전사테]	넹
2017-01-08 06:05:29	외침	[메티스]	자동꺼보시고
2017-01-08 06:05:30	외침	[메티스]	해보세여
2017-01-08 06:05:43	외침	[전사테]	한번박에 안되네용
2017-01-08 06:05:45	외침	[메티스]	그거
2017-01-08 06:05:48	외침	[메티스]	컨트롤+D눌러서
2017-01-08 06:05:51	외침	[메티스]	클릭 자동 공격
2017-01-08 06:05:53	외침	[메티스]	이거 꺼보세여
2017-01-08 06:05:53	외침	[전사테]	자동칼질껏습니다
2017-01-08 06:06:09	외침	[메티스]	전 잘되는데
2017-01-08 06:06:10	외침	[전사테]	우선 2레벨이되니
2017-01-08 06:06:14	외침	[전사테]	공격훈련
2017-01-08 06:06:17	외침	[전사테]	퀘스트는떳는데
2017-01-08 06:06:19	외침	[메티스]	넹
2017-01-08 06:06:20	외침	[전사테]	1렙엔 안떠숙용
2017-01-08 06:06:21	외침	[메티스]	음
2017-01-08 06:06:22	외침	[전사테]	안떳구용
2017-01-08 06:06:28	외침	[메티스]	클래스마다 다른건아닌데 왜이러지 잠시요
2017-01-08 06:06:29	외침	[메티스]	전사로해볼게여
2017-01-08 06:06:34	외침	[전사테]	넹
2017-01-08 06:07:00	외침	[?크]	뭐지
2017-01-08 06:07:06	외침	[?크]	생성하고나면 왜 안나오지 바로
2017-01-08 06:07:11	외침	[?크]	리스하면 뜨늗네
2017-01-08 06:07:13	외침	[?크]	수정해볼게여
2017-01-08 06:07:15	외침	[전사테]	넵
2017-01-08 06:07:19	외침	[?크]	그거말구는
2017-01-08 06:07:20	외침	[?크]	다른건없나여
2017-01-08 06:07:26	외침	[전사테]	네 우선 5레벨까지만
2017-01-08 06:07:31	외침	[전사테]	이벤트
2017-01-08 06:07:33	외침	[전사테]	멘트나오고
2017-01-08 06:07:35	외침	[전사테]	마을로만가는게
2017-01-08 06:07:36	외침	[전사테]	필요해서용
2017-01-08 06:07:38	외침	[?크]	10까진
2017-01-08 06:07:40	외침	[?크]	해놨어욤
2017-01-08 06:07:45	외침	[전사테]	넹지금 나오는
2017-01-08 06:07:50	외침	[전사테]	멘트만 사용할수있으면됩니당
2017-01-08 06:07:54	외침	[?크]	넵넵
2017-01-08 06:07:55	외침	[?크]	알겠습니다
2017-01-08 06:07:59	외침	[전사테]	고생하십니다^^
2017-01-08 06:08:05	외침	[?크]	넵 ^^
2017-01-08 06:08:08	외침	[?크]	1렙수정하면
2017-01-08 06:08:09	외침	[?크]	말씀드릴게요
2017-01-08 06:08:14	외침	[전사테]	네 대화주세요
2017-01-08 06:08:16	외침	[?크]	넹
2017-01-08 06:30:47	외침	[조]	취소는 
2017-01-08 06:40:16	외침	[코코코]	ㅋ
2017-01-08 07:01:56	외침	[촙]	zz
2017-01-08 07:02:16	외침	[촙]	ㅋㅋ
