2016-12-07 22:21:48	외침	[토스]	여기서
2016-12-07 22:21:50	외침	[토스]	발라가볼게요
2016-12-07 22:21:55	외침	[둘러보자]	네
2016-12-07 22:23:22	외침	[둘러보자]	스킬을
2016-12-07 22:23:24	외침	[둘러보자]	안쓰네요
2016-12-07 22:23:27	외침	[토스]	아쓰는데
2016-12-07 22:23:29	외침	[토스]	죽여버렷네요
2016-12-07 22:23:31	외침	[둘러보자]	ㅋㅋ
2016-12-07 22:23:51	외침	[토스]	이거는...
2016-12-07 22:23:54	외침	[토스]	레이드가아니라
2016-12-07 22:24:10	외침	[토스]	서버다시킬까여
2016-12-07 22:24:17	외침	[둘러보자]	왜요?ㅎ
2016-12-07 22:24:20	외침	[둘러보자]	발라카스를
2016-12-07 22:24:21	외침	[토스]	스킬을
2016-12-07 22:24:23	외침	[토스]	못보여드려서;;
2016-12-07 22:24:28	외침	[둘러보자]	이렇게
2016-12-07 22:24:30	외침	[둘러보자]	확인하면되요
2016-12-07 22:24:44	외침	[토스]	아하
2016-12-07 22:24:46	외침	[토스]	넹
2016-12-07 22:24:54	외침	[둘러보자]	``
2016-12-07 22:25:13	외침	[토스]	이러면
2016-12-07 22:25:14	외침	[토스]	안되요
2016-12-07 22:25:20	외침	[토스]	드래곤키에서 시작해야되요
2016-12-07 22:25:39	외침	[토스]	이거
2016-12-07 22:25:42	외침	[토스]	레이드시작을해야 나와여
2016-12-07 22:25:48	외침	[둘러보자]	아 그래요?
2016-12-07 22:29:08	외침	[토스]	어
2016-12-07 22:29:13	외침	[둘러보자]	서버
2016-12-07 22:29:15	외침	[둘러보자]	재가동
2016-12-07 22:29:18	외침	[둘러보자]	하신거 맞나요?
2016-12-07 22:30:53	전체	[둘러보자]	결계는 아직 안하셧나보네요
2016-12-07 22:31:15	외침	[둘러보자]	지금
2016-12-07 22:31:19	외침	[둘러보자]	이거 작업하신거에요?
2016-12-07 22:31:38	외침	[토스]	작업했는데
2016-12-07 22:31:41	외침	[토스]	사연이이써요
2016-12-07 22:31:47	외침	[토스]	잠시만요
2016-12-07 22:31:50	외침	[둘러보자]	네
2016-12-07 22:32:19	외침	[토스]	아 죄송해요
2016-12-07 22:32:20	외침	[토스]	여친때매
2016-12-07 22:32:21	외침	[토스]	네네
2016-12-07 22:32:23	외침	[토스]	이거 작업했는데
2016-12-07 22:32:26	외침	[토스]	공개팩
2016-12-07 22:32:29	외침	[토스]	인벤토리에
2016-12-07 22:32:31	외침	[토스]	추가하는 패킷이
2016-12-07 22:32:34	외침	[토스]	정상적이지않아서
2016-12-07 22:32:37	외침	[토스]	클라이언트에서
2016-12-07 22:32:40	외침	[토스]	속성 인첸트를
2016-12-07 22:32:42	외침	[토스]	인식을 못해요
2016-12-07 22:32:47	외침	[토스]	그래서 저상태로 내버려두고있어요 ㅠㅠ
2016-12-07 22:32:59	외침	[토스]	기껐 본섭가서 패킷따서 추가했는데
2016-12-07 22:33:08	외침	[둘러보자]	아 ㅎㅎ
2016-12-07 22:33:35	외침	[토스]	레이드
2016-12-07 22:33:37	외침	[토스]	보실껀가요?
2016-12-07 22:33:39	외침	[둘러보자]	네
2016-12-07 22:33:40	외침	[둘러보자]	지금
2016-12-07 22:33:41	외침	[둘러보자]	이거
2016-12-07 22:33:42	외침	[둘러보자]	확인좀
2016-12-07 22:33:44	외침	[둘러보자]	해볼게요
2016-12-07 22:33:49	외침	[토스]	레이드요?
2016-12-07 22:33:54	외침	[토스]	네 그럼 레이드 버프 지우고
2016-12-07 22:33:57	외침	[토스]	서버다운시켜야할거같아요
2016-12-07 22:34:03	외침	[둘러보자]	드실이
2016-12-07 22:34:04	외침	[둘러보자]	있는데
2016-12-07 22:34:07	외침	[둘러보자]	없다고
2016-12-07 22:34:09	외침	[둘러보자]	뜨네요
2016-12-07 22:34:09	외침	[토스]	네 그게
2016-12-07 22:34:13	외침	[토스]	아까도 말씀드렸듯이
2016-12-07 22:34:16	외침	[둘러보자]	아
2016-12-07 22:34:17	외침	[토스]	공개팩 인벤토리검사하는
2016-12-07 22:34:17	외침	[둘러보자]	인식을
2016-12-07 22:34:20	외침	[둘러보자]	못한다는거죠?
2016-12-07 22:34:20	외침	[토스]	패킷이있는데
2016-12-07 22:34:25	외침	[토스]	뭔가 잘못되있어요 공개팩 자체가
2016-12-07 22:34:29	외침	[토스]	그래서 속성인첸트를 못해요
2016-12-07 22:34:34	외침	[토스]	했지만 클라가
2016-12-07 22:34:35	외침	[토스]	인식을 못해요
2016-12-07 22:34:45	외침	[토스]	그래서 본섭에서 따고싶지만 본섭은 속성무기도없고
2016-12-07 22:34:47	외침	[토스]	레벨도낮고
2016-12-07 22:34:54	외침	[토스]	다른 대형서버에서 따온걸 따려고 기다리는 중이에요
2016-12-07 22:35:02	외침	[토스]	그리고
2016-12-07 22:35:03	외침	[토스]	알람이랑
2016-12-07 22:35:04	외침	[토스]	주퀘
2016-12-07 22:35:07	외침	[토스]	출첵
2016-12-07 22:35:09	외침	[토스]	이런건 다되있구여
2016-12-07 22:35:20	외침	[토스]	보스존에서 보스가 젠되있을때만 신규혈 보호없애는거랑
2016-12-07 22:35:26	외침	[토스]	아덴상점
2016-12-07 22:35:28	외침	[토스]	N상점 보시면
2016-12-07 22:35:33	외침	[토스]	힘 덱스 인트 강화주문서도 만들었어요
2016-12-07 22:35:52	외침	[둘러보자]	저건
2016-12-07 22:35:53	외침	[둘러보자]	머에요?
2016-12-07 22:35:56	외침	[토스]	저건
2016-12-07 22:35:58	외침	[토스]	아직 본섭에
2016-12-07 22:36:00	외침	[토스]	없는 버프에요
2016-12-07 22:36:05	외침	[토스]	곧 추가될거같아요 보니
2016-12-07 22:36:10	외침	[둘러보자]	아 ㅎㅎ
2016-12-07 22:36:14	외침	[토스]	패킷은 있는데
2016-12-07 22:36:18	외침	[토스]	본섭에는 아직 적용안한거같더라구요
2016-12-07 22:36:24	외침	[토스]	만들어놓구 안쓰는건지 기다리는중인지
2016-12-07 22:36:27	외침	[토스]	일단 저는 발견해서 쓰고있네요
2016-12-07 22:36:40	외침	[토스]	그리고 성장의고리 5단계까지 해놨구
2016-12-07 22:36:58	외침	[토스]	구현은 뭐 거의 다한거같긴해요
2016-12-07 22:37:00	외침	[둘러보자]	버프 이미지도
2016-12-07 22:37:02	외침	[둘러보자]	바꾼거에요?
2016-12-07 22:37:08	외침	[토스]	힘 덱스
2016-12-07 22:37:10	외침	[토스]	이런것들이요?
2016-12-07 22:37:21	외침	[토스]	버프이미지는 N+버프에
2016-12-07 22:37:24	외침	[토스]	소속되어서 추가가 되죠
2016-12-07 22:37:30	외침	[토스]	일반 N버프인데
2016-12-07 22:37:34	외침	[토스]	힘 덱스 인트를 추가시켜서 더
2016-12-07 22:37:36	외침	[토스]	늘어나는거에요
2016-12-07 22:38:23	외침	[둘러보자]	지금
2016-12-07 22:38:25	외침	[둘러보자]	잠깐
2016-12-07 22:38:28	외침	[둘러보자]	얘기하고있거든요
2016-12-07 22:38:32	외침	[토스]	네
2016-12-07 22:38:49	외침	[토스]	그럼 재접하시겠어요?
2016-12-07 22:38:51	외침	[토스]	버프 풀어놓고
2016-12-07 22:38:54	외침	[토스]	발라카스 잡으러가죠
2016-12-07 22:39:01	외침	[둘러보자]	네
2016-12-07 22:39:04	외침	[토스]	섭다할게요
2016-12-07 22:39:04	외침	[둘러보자]	알겠습니다
2016-12-07 22:39:06	외침	[둘러보자]	네~
2016-12-07 22:44:06	외침	[토스]	스턴됨여
2016-12-07 22:44:17	외침	[토스]	그 스킬뭐에요?
2016-12-07 22:44:23	외침	[둘러보자]	활이에요
2016-12-07 22:44:24	외침	[둘러보자]	ㅋㅋ
2016-12-07 22:44:25	외침	[토스]	아 ㅋㅋ
2016-12-07 22:44:26	외침	[둘러보자]	가이아격노
2016-12-07 22:44:27	외침	[둘러보자]	ㅎㅎ
2016-12-07 22:44:30	외침	[둘러보자]	지금
2016-12-07 22:44:32	외침	[둘러보자]	다른스킬을
2016-12-07 22:44:34	외침	[둘러보자]	안쓰는데 ㅎㅎ
2016-12-07 22:44:50	외침	[둘러보자]	공중에떠서
2016-12-07 22:44:51	외침	[토스]	피가좀
2016-12-07 22:44:52	외침	[둘러보자]	때리는거라
2016-12-07 22:44:53	외침	[토스]	줄어들면
2016-12-07 22:45:01	외침	[토스]	피 70퍼센트되면
2016-12-07 22:45:03	외침	[둘러보자]	아
2016-12-07 22:45:05	외침	[토스]	할파스 소환하게하는데
2016-12-07 22:45:50	외침	[토스]	좀더
2016-12-07 22:45:53	외침	[토스]	썐걸로해야겠네여
2016-12-07 22:46:49	외침	[토스]	스킬추가는
2016-12-07 22:46:52	외침	[토스]	이펙트만있으면
2016-12-07 22:46:55	외침	[토스]	금방할수있어요
2016-12-07 22:47:30	외침	[토스]	얘가
2016-12-07 22:47:31	외침	[토스]	무슨스킬을
2016-12-07 22:47:33	외침	[토스]	더쓰나요?
2016-12-07 22:47:39	외침	[둘러보자]	음
2016-12-07 22:47:40	외침	[둘러보자]	아까
2016-12-07 22:47:40	외침	[둘러보자]	제가
2016-12-07 22:47:42	외침	[둘러보자]	보여드린거
2016-12-07 22:47:43	외침	[둘러보자]	있죠?
2016-12-07 22:47:44	외침	[토스]	거기는
2016-12-07 22:47:48	외침	[토스]	스킬을 안쓰더라구여
2016-12-07 22:47:54	외침	[둘러보자]	그래요?
2016-12-07 22:47:57	외침	[둘러보자]	잠시만요
2016-12-07 22:47:58	외침	[토스]	스킬쓰기전에
2016-12-07 22:48:00	외침	[토스]	동영상이
2016-12-07 22:48:01	외침	[토스]	끝나여
2016-12-07 22:48:04	외침	[둘러보자]	제가
2016-12-07 22:48:06	외침	[둘러보자]	확인하고
2016-12-07 22:48:08	외침	[둘러보자]	보여드릴게요
