2016-11-08 23:47:10	버리기	mbcznvx:[아아아]	[297044448]1억 아데나 수표(20)
2016-11-08 23:47:19	줍기	mbcznvx:[냐아아]	[297044448]1억 아데나 수표(20)
2016-11-08 23:48:00	버리기	mbcznvx:[아아아]	[297044464]+50신성한 보호 망토
2016-11-08 23:48:08	줍기	mbcznvx:[아아아]	[297044464]+50신성한 보호 망토
2016-11-08 23:48:11	버리기	mbcznvx:[아아아]	[297044464]+50신성한 보호 망토
2016-11-08 23:48:30	버리기	mbcznvx:[아아아]	[297044480]+40투구
2016-11-08 23:48:34	줍기	mbcznvx:[냐아아]	[297044464]+50신성한 보호 망토
2016-11-08 23:48:35	줍기	mbcznvx:[냐아아]	[297044480]+40투구
2016-11-08 23:49:05	버리기	mbcznvx:[아아아]	[297044492]+10태풍의 도끼
2016-11-08 23:49:05	버리기	mbcznvx:[아아아]	[297044493]+10태풍의 도끼
2016-11-08 23:49:14	줍기	mbcznvx:[냐아아]	[297044492]+10태풍의 도끼
2016-11-08 23:49:15	줍기	mbcznvx:[냐아아]	[297044493]+10태풍의 도끼
2016-11-08 23:51:03	버리기	mbcznvx:[아아아]	[297044517]경험치 물약(10)
2016-11-08 23:51:11	줍기	mbcznvx:[냐아아]	[297044517]경험치 물약(10)
