2016-11-22 09:13:21	접속 캐릭=미소피아	계정=mbcznvx	IP=127.0.0.1
2016-11-22 09:15:02	종료 캐릭=미소피아 계정=mbcznvx IP=127.0.0.1
2016-11-22 09:15:06	접속 캐릭=미소피아	계정=mbcznvx	IP=127.0.0.1
2016-11-22 09:19:00	접속 캐릭=미소피아	계정=mbcznvx	IP=127.0.0.1
2016-11-22 09:21:30	접속 캐릭=미소피아	계정=mbcznvx	IP=127.0.0.1
2016-11-22 09:25:08	종료 캐릭=미소피아 계정=mbcznvx IP=127.0.0.1
2016-11-22 09:25:13	접속 캐릭=미소피아	계정=mbcznvx	IP=127.0.0.1
2016-11-22 11:08:38	접속 캐릭=미소피아	계정=mbcznvx	IP=127.0.0.1
2016-11-22 11:48:16	종료 캐릭=미소피아 계정=mbcznvx IP=127.0.0.1
2016-11-22 12:42:42	접속 캐릭=미소피아	계정=mbcznvx	IP=127.0.0.1
2016-11-22 12:55:44	접속 캐릭=미소피아	계정=mbcznvx	IP=127.0.0.1
2016-11-22 13:01:44	접속 캐릭=미소피아	계정=mbcznvx	IP=127.0.0.1
2016-11-22 13:08:31	접속 캐릭=미소피아	계정=mbcznvx	IP=127.0.0.1
2016-11-22 15:04:23	접속 캐릭=미소피아	계정=mbcznvx	IP=127.0.0.1
2016-11-22 16:20:29	접속 캐릭=미소피아	계정=mbcznvx	IP=127.0.0.1
2016-11-22 16:22:01	종료 캐릭=미소피아 계정=mbcznvx IP=127.0.0.1
2016-11-22 16:57:29	접속 캐릭=미소피아	계정=mbcznvx	IP=127.0.0.1
2016-11-22 19:21:26	접속 캐릭=미소피아	계정=mbcznvx	IP=127.0.0.1
2016-11-22 19:24:08	접속 캐릭=미소피아	계정=mbcznvx	IP=127.0.0.1
2016-11-22 19:27:43	접속 캐릭=미소피아	계정=mbcznvx	IP=127.0.0.1
2016-11-22 19:29:31	종료 캐릭=미소피아 계정=mbcznvx IP=127.0.0.1
2016-11-22 19:29:33	접속 캐릭=나다	계정=mbcznvx	IP=127.0.0.1
2016-11-22 19:30:00	종료 캐릭=나다 계정=mbcznvx IP=127.0.0.1
2016-11-22 19:30:02	접속 캐릭=미소피아	계정=mbcznvx	IP=127.0.0.1
2016-11-22 19:37:43	접속 캐릭=미소피아	계정=mbcznvx	IP=127.0.0.1
2016-11-22 19:44:23	종료 캐릭=미소피아 계정=mbcznvx IP=127.0.0.1
2016-11-22 19:44:27	접속 캐릭=미소피아	계정=mbcznvx	IP=127.0.0.1
2016-11-22 19:54:58	접속 캐릭=미소피아	계정=mbcznvx	IP=127.0.0.1
2016-11-22 19:56:29	접속 캐릭=미소피아	계정=mbcznvx	IP=127.0.0.1
2016-11-22 20:23:00	접속 캐릭=미소피아	계정=mbcznvx	IP=127.0.0.1
2016-11-22 20:23:47	종료 캐릭=미소피아 계정=mbcznvx IP=127.0.0.1
2016-11-22 20:24:11	접속 캐릭=미소피아	계정=mbcznvx	IP=127.0.0.1
2016-11-22 20:31:36	접속 캐릭=미소피아	계정=mbcznvx	IP=127.0.0.1
2016-11-22 20:40:22	접속 캐릭=미소피아	계정=mbcznvx	IP=127.0.0.1
2016-11-22 20:43:42	접속 캐릭=미소피아	계정=mbcznvx	IP=127.0.0.1
2016-11-22 21:27:02	접속 캐릭=미소피아	계정=mbcznvx	IP=127.0.0.1
2016-11-22 21:33:07	접속 캐릭=미소피아	계정=mbcznvx	IP=127.0.0.1
