2016-11-20 11:57:38	접속 캐릭=미소	계정=mbcznvx	IP=127.0.0.1
2016-11-20 11:57:59	종료 캐릭=미소 계정=mbcznvx IP=127.0.0.1
2016-11-20 11:58:28	접속 캐릭=미소피아	계정=mbcznvx	IP=127.0.0.1
2016-11-20 12:15:06	접속 캐릭=미소피아	계정=mbcznvx	IP=127.0.0.1
2016-11-20 12:21:10	접속 캐릭=미소피아	계정=mbcznvx	IP=127.0.0.1
2016-11-20 12:59:25	접속 캐릭=미소피아	계정=mbcznvx	IP=127.0.0.1
2016-11-20 13:01:30	접속 캐릭=미소피아	계정=mbcznvx	IP=127.0.0.1
2016-11-20 13:58:04	접속 캐릭=미소피아	계정=mbcznvx	IP=127.0.0.1
2016-11-20 14:09:44	접속 캐릭=미소피아	계정=mbcznvx	IP=127.0.0.1
2016-11-20 14:13:33	접속 캐릭=미소피아	계정=mbcznvx	IP=127.0.0.1
2016-11-20 14:21:41	접속 캐릭=미소피아	계정=mbcznvx	IP=127.0.0.1
2016-11-20 14:32:31	접속 캐릭=미소피아	계정=mbcznvx	IP=127.0.0.1
2016-11-20 14:36:33	접속 캐릭=미소피아	계정=mbcznvx	IP=127.0.0.1
