2016-10-04 09:38:40	kokoa1:[꼬미]	실패	[268825450]+6오리하루콘 단검
2016-10-04 09:39:39	kokoa1:[꼬미]	성공	[268825461]+7오리하루콘 단검
2016-10-04 09:39:40	kokoa1:[꼬미]	성공	[268825460]+7오리하루콘 단검
2016-10-04 09:39:41	kokoa1:[꼬미]	실패	[268825459]+6오리하루콘 단검
2016-10-04 09:39:42	kokoa1:[꼬미]	실패	[268825458]+6오리하루콘 단검
2016-10-04 09:39:43	kokoa1:[꼬미]	성공	[268825454]+7오리하루콘 단검
2016-10-04 09:39:43	kokoa1:[꼬미]	실패	[268825455]+6오리하루콘 단검
2016-10-04 09:39:45	kokoa1:[꼬미]	실패	[268825456]+6오리하루콘 단검
2016-10-04 09:39:46	kokoa1:[꼬미]	실패	[268825457]+6오리하루콘 단검
2016-10-04 09:39:48	kokoa1:[꼬미]	실패	[268825452]+6오리하루콘 단검
2016-10-04 09:39:49	kokoa1:[꼬미]	실패	[268825453]+6오리하루콘 단검
2016-10-04 09:39:50	kokoa1:[꼬미]	성공	[268825454]+8오리하루콘 단검
2016-10-04 09:39:51	kokoa1:[꼬미]	실패	[268825460]+7오리하루콘 단검
2016-10-04 09:39:52	kokoa1:[꼬미]	성공	[268825461]+8오리하루콘 단검
2016-10-04 09:39:53	kokoa1:[꼬미]	실패	[268825454]+8오리하루콘 단검
