2016-11-23 10:42:29	접속 캐릭=미소피아	계정=mbcznvx	IP=127.0.0.1
2016-11-23 10:43:26	종료 캐릭=미소피아 계정=mbcznvx IP=127.0.0.1
2016-11-23 10:44:02	접속 캐릭=미소피아	계정=mbcznvx	IP=127.0.0.1
2016-11-23 11:12:57	접속 캐릭=미소피아	계정=mbcznvx	IP=127.0.0.1
2016-11-23 13:59:24	접속 캐릭=나다	계정=mbcznvx	IP=127.0.0.1
2016-11-23 13:59:58	접속 캐릭=아하	계정=mbcznvx1	IP=127.0.0.1
2016-11-23 14:00:06	종료 캐릭=나다 계정=mbcznvx IP=127.0.0.1
2016-11-23 14:00:10	접속 캐릭=미소피아	계정=mbcznvx	IP=127.0.0.1
2016-11-23 18:00:36	접속 캐릭=미소피아	계정=mbcznvx	IP=127.0.0.1
2016-11-23 18:40:34	접속 캐릭=메티스	계정=mbcznvx	IP=127.0.0.1
2016-11-23 18:41:48	종료 캐릭=메티스 계정=mbcznvx IP=127.0.0.1
2016-11-23 18:41:53	접속 캐릭=메티스	계정=mbcznvx	IP=127.0.0.1
2016-11-23 18:43:45	접속 캐릭=아하	계정=mbcznvx1	IP=127.0.0.1
2016-11-23 18:51:42	접속 캐릭=메티스	계정=mbcznvx	IP=127.0.0.1
2016-11-23 18:52:50	접속 캐릭=아하	계정=mbcznvx1	IP=127.0.0.1
2016-11-23 19:00:29	종료 캐릭=아하 계정=mbcznvx1 IP=127.0.0.1
2016-11-23 19:00:33	종료 캐릭=메티스 계정=mbcznvx IP=127.0.0.1
2016-11-23 19:00:33	접속 캐릭=아하	계정=mbcznvx1	IP=127.0.0.1
2016-11-23 19:00:45	접속 캐릭=전사다	계정=mbcznvx	IP=127.0.0.1
2016-11-23 19:02:41	종료 캐릭=전사다 계정=mbcznvx IP=127.0.0.1
2016-11-23 19:02:49	접속 캐릭=메티스	계정=mbcznvx	IP=127.0.0.1
2016-11-23 19:10:37	종료 캐릭=메티스 계정=mbcznvx IP=127.0.0.1
2016-11-23 19:11:13	접속 캐릭=메티스	계정=mbcznvx	IP=127.0.0.1
2016-11-23 19:11:15	종료 캐릭=아하 계정=mbcznvx1 IP=127.0.0.1
2016-11-23 19:11:23	접속 캐릭=전사다	계정=mbcznvx1	IP=127.0.0.1
2016-11-23 19:18:55	접속 캐릭=메티스	계정=mbcznvx	IP=127.0.0.1
2016-11-23 19:19:07	접속 캐릭=전사다	계정=mbcznvx1	IP=127.0.0.1
2016-11-23 19:21:33	종료 캐릭=메티스 계정=mbcznvx IP=127.0.0.1
2016-11-23 19:29:45	접속 캐릭=메티스	계정=mbcznvx	IP=127.0.0.1
2016-11-23 19:29:54	접속 캐릭=전사다	계정=mbcznvx1	IP=127.0.0.1
2016-11-23 19:42:42	종료 캐릭=전사다 계정=mbcznvx1 IP=127.0.0.1
2016-11-23 19:42:45	접속 캐릭=아하	계정=mbcznvx1	IP=127.0.0.1
2016-11-23 19:50:22	접속 캐릭=메티스	계정=mbcznvx	IP=127.0.0.1
2016-11-23 19:50:41	접속 캐릭=아하	계정=mbcznvx1	IP=127.0.0.1
2016-11-23 20:03:18	종료 캐릭=아하 계정=mbcznvx1 IP=127.0.0.1
2016-11-23 20:03:18	종료 캐릭=메티스 계정=mbcznvx IP=127.0.0.1
2016-11-23 20:05:28	접속 캐릭=메티스	계정=mbcznvx	IP=127.0.0.1
2016-11-23 20:05:29	접속 캐릭=아하	계정=mbcznvx1	IP=127.0.0.1
2016-11-23 20:24:38	접속 캐릭=아하	계정=mbcznvx1	IP=127.0.0.1
2016-11-23 20:24:39	접속 캐릭=메티스	계정=mbcznvx	IP=127.0.0.1
