2017-01-07 17:13:15	접속 캐릭=메티스	계정=matis	IP=14.138.119.53
2017-01-07 18:05:18	종료 캐릭=메티스 계정=matis IP=14.138.119.53
2017-01-07 18:39:47	접속 캐릭=메티스	계정=matis	IP=14.138.119.53
2017-01-07 18:40:45	종료 캐릭=메티스 계정=matis IP=14.138.119.53
2017-01-07 18:40:50	접속 캐릭=메티스	계정=matis	IP=14.138.119.53
2017-01-07 19:19:07	접속 캐릭=메티스	계정=matis	IP=14.138.119.53
2017-01-07 19:25:02	접속 캐릭=메티스	계정=matis	IP=14.138.119.53
2017-01-07 19:27:02	종료 캐릭=메티스 계정=matis IP=14.138.119.53
2017-01-07 19:28:02	접속 캐릭=메티스	계정=matis	IP=14.138.119.53
2017-01-07 19:28:29	종료 캐릭=메티스 계정=matis IP=14.138.119.53
2017-01-07 19:31:40	접속 캐릭=메티스	계정=matis	IP=14.138.119.53
2017-01-07 19:31:55	종료 캐릭=메티스 계정=matis IP=14.138.119.53
2017-01-07 19:35:27	접속 캐릭=메티스	계정=matis	IP=14.138.119.53
2017-01-07 19:35:48	종료 캐릭=메티스 계정=matis IP=14.138.119.53
2017-01-07 19:38:53	접속 캐릭=메티스	계정=matis	IP=14.138.119.53
2017-01-07 19:43:41	종료 캐릭=메티스 계정=matis IP=14.138.119.53
2017-01-07 19:43:44	접속 캐릭=오코	계정=matis	IP=14.138.119.53
2017-01-07 19:44:01	종료 캐릭=오코 계정=matis IP=14.138.119.53
2017-01-07 19:44:17	접속 캐릭=오코	계정=matis	IP=14.138.119.53
2017-01-07 19:46:14	종료 캐릭=오코 계정=matis IP=14.138.119.53
2017-01-07 20:00:32	접속 캐릭=오코	계정=matis	IP=14.138.119.53
2017-01-07 20:01:25	종료 캐릭=오코 계정=matis IP=14.138.119.53
2017-01-07 20:08:22	접속 캐릭=오코	계정=matis	IP=14.138.119.53
2017-01-07 20:08:56	종료 캐릭=오코 계정=matis IP=14.138.119.53
2017-01-07 20:09:01	접속 캐릭=오코	계정=matis	IP=14.138.119.53
2017-01-07 20:14:23	접속 캐릭=오코	계정=matis	IP=14.138.119.53
2017-01-07 20:34:07	접속 캐릭=오코	계정=matis	IP=14.138.119.53
2017-01-07 20:37:58	접속 캐릭=오코	계정=matis	IP=14.138.119.53
2017-01-07 20:48:10	접속 캐릭=오코	계정=matis	IP=14.138.119.53
2017-01-07 20:53:15	접속 캐릭=오코	계정=matis	IP=14.138.119.53
2017-01-07 20:53:50	종료 캐릭=오코 계정=matis IP=14.138.119.53
2017-01-07 20:54:53	접속 캐릭=오코	계정=matis	IP=14.138.119.53
2017-01-07 20:55:17	종료 캐릭=오코 계정=matis IP=14.138.119.53
2017-01-07 20:59:41	접속 캐릭=오코	계정=matis	IP=14.138.119.53
2017-01-07 21:09:42	접속 캐릭=오코	계정=matis	IP=14.138.119.53
2017-01-07 21:10:32	종료 캐릭=오코 계정=matis IP=14.138.119.53
2017-01-07 21:10:37	접속 캐릭=오코	계정=matis	IP=14.138.119.53
2017-01-07 21:14:19	종료 캐릭=오코 계정=matis IP=14.138.119.53
2017-01-07 21:35:16	접속 캐릭=오코	계정=matis	IP=14.138.119.53
2017-01-07 21:41:21	접속 캐릭=오코	계정=matis	IP=14.138.119.53
2017-01-07 21:47:05	접속 캐릭=오코	계정=matis	IP=14.138.119.53
2017-01-07 21:53:34	접속 캐릭=오코	계정=matis	IP=14.138.119.53
2017-01-07 21:54:44	종료 캐릭=오코 계정=matis IP=14.138.119.53
2017-01-07 21:54:49	접속 캐릭=오코	계정=matis	IP=14.138.119.53
2017-01-07 21:57:15	종료 캐릭=오코 계정=matis IP=14.138.119.53
2017-01-07 22:11:00	접속 캐릭=오코	계정=matis	IP=14.138.119.53
2017-01-07 22:15:21	접속 캐릭=오코	계정=matis	IP=14.138.119.53
2017-01-07 22:19:40	접속 캐릭=오코	계정=matis	IP=14.138.119.53
2017-01-07 22:21:06	종료 캐릭=오코 계정=matis IP=14.138.119.53
2017-01-07 22:23:16	접속 캐릭=오코	계정=matis	IP=14.138.119.53
2017-01-07 22:25:04	접속 캐릭=오코	계정=matis	IP=14.138.119.53
2017-01-07 22:28:38	종료 캐릭=오코 계정=matis IP=14.138.119.53
2017-01-07 22:28:42	접속 캐릭=오코	계정=matis	IP=14.138.119.53
2017-01-07 22:36:05	접속 캐릭=콕수	계정=matis	IP=14.138.119.53
2017-01-07 22:37:36	종료 캐릭=콕수 계정=matis IP=14.138.119.53
2017-01-07 22:41:16	접속 캐릭=오코	계정=matis	IP=14.138.119.53
2017-01-07 22:43:10	종료 캐릭=오코 계정=matis IP=14.138.119.53
2017-01-07 22:45:02	접속 캐릭=오코	계정=matis	IP=14.138.119.53
2017-01-07 22:45:28	종료 캐릭=오코 계정=matis IP=14.138.119.53
2017-01-07 22:45:32	접속 캐릭=오코	계정=matis	IP=14.138.119.53
2017-01-07 22:46:07	종료 캐릭=오코 계정=matis IP=14.138.119.53
2017-01-07 22:46:11	접속 캐릭=오코	계정=matis	IP=14.138.119.53
2017-01-07 22:47:16	종료 캐릭=오코 계정=matis IP=14.138.119.53
2017-01-07 22:47:21	접속 캐릭=오코	계정=matis	IP=14.138.119.53
2017-01-07 22:48:40	종료 캐릭=오코 계정=matis IP=14.138.119.53
2017-01-07 22:54:11	접속 캐릭=콕수	계정=matis	IP=14.138.119.53
2017-01-07 22:54:24	종료 캐릭=콕수 계정=matis IP=14.138.119.53
2017-01-07 22:54:29	접속 캐릭=오코	계정=matis	IP=14.138.119.53
2017-01-07 22:55:26	종료 캐릭=오코 계정=matis IP=14.138.119.53
2017-01-07 22:55:30	접속 캐릭=오코	계정=matis	IP=14.138.119.53
2017-01-07 22:56:04	종료 캐릭=오코 계정=matis IP=14.138.119.53
2017-01-07 23:35:20	접속 캐릭=메티스	계정=matis	IP=14.138.119.53
2017-01-07 23:43:01	접속 캐릭=메티스	계정=matis	IP=14.138.119.53
2017-01-07 23:43:35	종료 캐릭=메티스 계정=matis IP=14.138.119.53
