2016-12-04 16:47:27	접속 캐릭=토스	계정=matis	IP=175.205.201.146
2016-12-04 16:49:19	접속 캐릭=토스	계정=matis	IP=175.205.201.146
2016-12-04 16:51:34	종료 캐릭=토스 계정=matis IP=175.205.201.146
2016-12-04 16:51:37	접속 캐릭=끝	계정=matis	IP=175.205.201.146
2016-12-04 16:53:35	종료 캐릭=끝 계정=matis IP=175.205.201.146
2016-12-04 16:53:37	접속 캐릭=토스	계정=matis	IP=175.205.201.146
2016-12-04 16:53:46	종료 캐릭=토스 계정=matis IP=175.205.201.146
2016-12-04 16:53:49	접속 캐릭=멧	계정=matis	IP=175.205.201.146
2016-12-04 17:58:50	접속 캐릭=토스	계정=matis	IP=175.205.201.146
2016-12-04 18:05:29	접속 캐릭=토스	계정=matis	IP=175.205.201.146
2016-12-04 18:08:21	접속 캐릭=토스	계정=matis	IP=175.205.201.146
2016-12-04 18:10:37	접속 캐릭=토스	계정=matis	IP=175.205.201.146
2016-12-04 18:11:02	종료 캐릭=토스 계정=matis IP=175.205.201.146
2016-12-04 18:15:27	접속 캐릭=토스	계정=matis	IP=175.205.201.146
2016-12-04 18:19:00	접속 캐릭=토스	계정=matis	IP=175.205.201.146
2016-12-04 18:20:55	접속 캐릭=토스	계정=matis	IP=175.205.201.146
2016-12-04 18:23:48	종료 캐릭=토스 계정=matis IP=175.205.201.146
2016-12-04 18:24:15	접속 캐릭=토스	계정=matis	IP=175.205.201.146
2016-12-04 18:24:21	종료 캐릭=토스 계정=matis IP=175.205.201.146
2016-12-04 18:24:25	접속 캐릭=토스	계정=matis	IP=175.205.201.146
2016-12-04 18:25:57	종료 캐릭=토스 계정=matis IP=175.205.201.146
2016-12-04 18:26:01	접속 캐릭=토스	계정=matis	IP=175.205.201.146
2016-12-04 19:00:01	접속 캐릭=토스	계정=matis	IP=175.205.201.146
2016-12-04 19:49:20	접속 캐릭=토스	계정=matis	IP=175.205.201.146
2016-12-04 19:51:15	종료 캐릭=토스 계정=matis IP=175.205.201.146
2016-12-04 19:54:41	접속 캐릭=토스	계정=matis	IP=175.205.201.146
2016-12-04 19:55:59	종료 캐릭=토스 계정=matis IP=175.205.201.146
2016-12-04 19:59:32	접속 캐릭=토스	계정=matis	IP=175.205.201.146
2016-12-04 20:08:20	접속 캐릭=토스	계정=matis	IP=175.205.201.146
2016-12-04 20:20:58	접속 캐릭=토스	계정=matis	IP=175.205.201.146
2016-12-04 20:22:28	종료 캐릭=토스 계정=matis IP=175.205.201.146
2016-12-04 20:24:12	접속 캐릭=토스	계정=matis	IP=175.205.201.146
2016-12-04 20:26:33	접속 캐릭=토스	계정=matis	IP=175.205.201.146
2016-12-04 20:28:57	접속 캐릭=토스	계정=matis	IP=175.205.201.146
2016-12-04 20:29:34	종료 캐릭=토스 계정=matis IP=175.205.201.146
2016-12-04 20:31:07	접속 캐릭=토스	계정=matis	IP=175.205.201.146
2016-12-04 20:32:06	종료 캐릭=토스 계정=matis IP=175.205.201.146
2016-12-04 20:32:10	접속 캐릭=토스	계정=matis	IP=175.205.201.146
2016-12-04 20:32:50	종료 캐릭=토스 계정=matis IP=175.205.201.146
2016-12-04 20:32:54	접속 캐릭=토스	계정=matis	IP=175.205.201.146
2016-12-04 20:35:53	접속 캐릭=토스	계정=matis	IP=175.205.201.146
2016-12-04 20:38:55	종료 캐릭=토스 계정=matis IP=175.205.201.146
2016-12-04 20:50:23	접속 캐릭=토스	계정=matis	IP=175.205.201.146
2016-12-04 20:53:56	접속 캐릭=토스	계정=matis	IP=175.205.201.146
2016-12-04 20:57:14	접속 캐릭=토스	계정=matis	IP=175.205.201.146
2016-12-04 20:58:49	종료 캐릭=토스 계정=matis IP=175.205.201.146
2016-12-04 20:59:05	접속 캐릭=코오	계정=matis2	IP=175.205.201.146
2016-12-04 20:59:23	종료 캐릭=코오 계정=matis2 IP=175.205.201.146
2016-12-04 20:59:27	접속 캐릭=코오	계정=matis2	IP=175.205.201.146
2016-12-04 21:00:56	접속 캐릭=토스	계정=matis	IP=175.205.201.146
2016-12-04 21:01:14	종료 캐릭=토스 계정=matis IP=175.205.201.146
2016-12-04 21:01:19	접속 캐릭=코오	계정=matis2	IP=175.205.201.146
2016-12-04 21:03:40	접속 캐릭=코오	계정=matis2	IP=175.205.201.146
2016-12-04 21:04:12	종료 캐릭=코오 계정=matis2 IP=175.205.201.146
2016-12-04 21:04:20	접속 캐릭=토스	계정=matis	IP=175.205.201.146
2016-12-04 21:05:32	종료 캐릭=토스 계정=matis IP=175.205.201.146
2016-12-04 21:05:37	접속 캐릭=토스	계정=matis	IP=175.205.201.146
2016-12-04 21:06:57	종료 캐릭=토스 계정=matis IP=175.205.201.146
2016-12-04 21:07:04	접속 캐릭=코오	계정=matis2	IP=175.205.201.146
2016-12-04 21:09:29	접속 캐릭=토스	계정=matis	IP=175.205.201.146
2016-12-04 21:09:50	종료 캐릭=토스 계정=matis IP=175.205.201.146
2016-12-04 21:12:13	접속 캐릭=토스	계정=matis	IP=175.205.201.146
2016-12-04 21:12:40	종료 캐릭=토스 계정=matis IP=175.205.201.146
2016-12-04 21:12:44	접속 캐릭=토스	계정=matis	IP=175.205.201.146
2016-12-04 21:13:03	종료 캐릭=토스 계정=matis IP=175.205.201.146
2016-12-04 21:13:08	접속 캐릭=토스	계정=matis	IP=175.205.201.146
2016-12-04 21:15:30	접속 캐릭=코오	계정=matis2	IP=175.205.201.146
2016-12-04 21:25:43	접속 캐릭=토스	계정=matis	IP=175.205.201.146
2016-12-04 21:44:50	접속 캐릭=토스	계정=matis	IP=175.205.201.146
2016-12-04 23:02:07	접속 캐릭=토스	계정=matis	IP=175.205.201.146
2016-12-04 23:43:54	접속 캐릭=토스	계정=matis	IP=175.205.201.146
